%YAML 1.1
%TAG !u! tag:unity3d.com,2011:
--- !u!1 &1427348273745782
GameObject:
  m_ObjectHideFlags: 0
  m_CorrespondingSourceObject: {fileID: 0}
  m_PrefabInstance: {fileID: 0}
  m_PrefabAsset: {fileID: 0}
  serializedVersion: 6
  m_Component:
  - component: {fileID: 4523957793884910}
  - component: {fileID: 33234158326814626}
  - component: {fileID: 23329621482539398}
  - component: {fileID: 95049324634186662}
  m_Layer: 0
  m_Name: House (3)
  m_TagString: Untagged
  m_Icon: {fileID: 0}
  m_NavMeshLayer: 0
  m_StaticEditorFlags: 0
  m_IsActive: 1
--- !u!4 &4523957793884910
Transform:
  m_ObjectHideFlags: 0
  m_CorrespondingSourceObject: {fileID: 0}
  m_PrefabInstance: {fileID: 0}
  m_PrefabAsset: {fileID: 0}
  m_GameObject: {fileID: 1427348273745782}
  m_LocalRotation: {x: -0.7065663, y: 0.027643697, z: 0.027643697, w: 0.7065663}
  m_LocalPosition: {x: 64.7504, y: 0, z: -126.0595}
  m_LocalScale: {x: 1.0031356, y: 0.8187321, z: 1.1375594}
  m_Children: []
  m_Father: {fileID: 0}
  m_RootOrder: 0
  m_LocalEulerAnglesHint: {x: -90.00001, y: 0, z: 4.4810004}
--- !u!33 &33234158326814626
MeshFilter:
  m_ObjectHideFlags: 0
  m_CorrespondingSourceObject: {fileID: 0}
  m_PrefabInstance: {fileID: 0}
  m_PrefabAsset: {fileID: 0}
  m_GameObject: {fileID: 1427348273745782}
  m_Mesh: {fileID: 4300000, guid: 751efb34db1e8de438f992a703c02a91, type: 3}
--- !u!23 &23329621482539398
MeshRenderer:
  m_ObjectHideFlags: 0
  m_CorrespondingSourceObject: {fileID: 0}
  m_PrefabInstance: {fileID: 0}
  m_PrefabAsset: {fileID: 0}
  m_GameObject: {fileID: 1427348273745782}
  m_Enabled: 1
  m_CastShadows: 1
  m_ReceiveShadows: 1
  m_DynamicOccludee: 1
  m_MotionVectors: 1
  m_LightProbeUsage: 1
  m_ReflectionProbeUsage: 1
  m_RenderingLayerMask: 4294967295
  m_RendererPriority: 0
  m_Materials:
  - {fileID: 2100000, guid: d21d27706b1d70b42a692522aadcf834, type: 2}
  - {fileID: 2100000, guid: 5ccbfa002a95e4ee287710751a018775, type: 2}
  - {fileID: 2100000, guid: 5ccbfa002a95e4ee287710751a018775, type: 2}
  - {fileID: 2100000, guid: 5ccbfa002a95e4ee287710751a018775, type: 2}
  - {fileID: 2100000, guid: 5ccbfa002a95e4ee287710751a018775, type: 2}
  - {fileID: 2100000, guid: 5ccbfa002a95e4ee287710751a018775, type: 2}
  - {fileID: 2100000, guid: 6d80780740b658b499344f484430639d, type: 2}
  m_StaticBatchInfo:
    firstSubMesh: 0
    subMeshCount: 0
  m_StaticBatchRoot: {fileID: 0}
  m_ProbeAnchor: {fileID: 0}
  m_LightProbeVolumeOverride: {fileID: 0}
  m_ScaleInLightmap: 1
  m_PreserveUVs: 0
  m_IgnoreNormalsForChartDetection: 0
  m_ImportantGI: 0
  m_StitchLightmapSeams: 0
  m_SelectedEditorRenderState: 3
  m_MinimumChartSize: 4
  m_AutoUVMaxDistance: 0.5
  m_AutoUVMaxAngle: 89
  m_LightmapParameters: {fileID: 0}
  m_SortingLayerID: 0
  m_SortingLayer: 0
  m_SortingOrder: 0
--- !u!95 &95049324634186662
Animator:
  serializedVersion: 3
  m_ObjectHideFlags: 0
  m_CorrespondingSourceObject: {fileID: 0}
  m_PrefabInstance: {fileID: 0}
  m_PrefabAsset: {fileID: 0}
  m_GameObject: {fileID: 1427348273745782}
  m_Enabled: 1
  m_Avatar: {fileID: 9000000, guid: 751efb34db1e8de438f992a703c02a91, type: 3}
  m_Controller: {fileID: 0}
  m_CullingMode: 0
  m_UpdateMode: 0
  m_ApplyRootMotion: 0
  m_LinearVelocityBlending: 0
  m_WarningMessage: 
  m_HasTransformHierarchy: 1
  m_AllowConstantClipSamplingOptimization: 1
  m_KeepAnimatorControllerStateOnDisable: 0
